[19:37:46 --4:00] [Thread 3160654870] extDB: Version: 35
[19:37:46 --4:00] [Thread 3160654870] extDB: Windows Version
[19:37:46 --4:00] [Thread 3160654870] Message: Arma Linux Servers are using Older Physic Library (than Windows Servers), due to Debian 7 using old version of Glibc
[19:37:46 --4:00] [Thread 3160654870] Message: If you like extDB consider donating or bug BIS to drop support for Debian 7 thanks, so Linux Servers get same Physic Library Version as Windows
[19:37:46 --4:00] [Thread 3160654870] Message: Note currently most/all development for extDB is done on a Linux Server
[19:37:46 --4:00] [Thread 3160654870] Message: Torndeco: 24/01/15
[19:37:46 --4:00] [Thread 3160654870] 
[19:37:46 --4:00] [Thread 3160654870] extDB: Found extdb-conf.ini
[19:37:46 --4:00] [Thread 3160654870] extDB: Detected 8 Cores, Setting up 6 Worker Threads
[19:37:46 --4:00] [Thread 3160654870] extDB: Database Type: MySQL
[19:37:46 --4:00] [Thread 3160654870] extDB: Database Session Pool Started
[19:37:46 --4:00] [Thread 3160654870] extDB: DB_CUSTOM_V5: Loading Template Filename: C:\Games\ArmA3\A3Master\@extDB\extDB\db_custom\altis-life-rpg-4.ini
[19:37:46 --4:00] [Thread 1513998368] extDB: DB_CUSTOM_V5: Error StatementException: MySQL: [MySQL]: [Comment]: mysql_stmt_execute error	[mysql_stmt_error]: The user specified as a definer ('arma3'@'localhost') does not exist	[mysql_stmt_errno]: 1449	[mysql_stmt_sqlstate]: HY000	[statemnt]: CALL resetLifeVehicles;
[19:37:46 --4:00] [Thread 1513998368] extDB: DB_CUSTOM_V5: Error Exception: SQL: resetLifeVehicles
[22:36:27 --4:00] [Thread 3160654870] extDB: Stopping ...
