[22:04:51 --4:00] [Thread 3310597146] extDB: Version: 35
[22:04:51 --4:00] [Thread 3310597146] extDB: Windows Version
[22:04:51 --4:00] [Thread 3310597146] Message: Arma Linux Servers are using Older Physic Library (than Windows Servers), due to Debian 7 using old version of Glibc
[22:04:51 --4:00] [Thread 3310597146] Message: If you like extDB consider donating or bug BIS to drop support for Debian 7 thanks, so Linux Servers get same Physic Library Version as Windows
[22:04:51 --4:00] [Thread 3310597146] Message: Note currently most/all development for extDB is done on a Linux Server
[22:04:51 --4:00] [Thread 3310597146] Message: Torndeco: 24/01/15
[22:04:51 --4:00] [Thread 3310597146] 
[22:04:51 --4:00] [Thread 3310597146] extDB: Found extdb-conf.ini
[22:04:51 --4:00] [Thread 3310597146] extDB: Detected 8 Cores, Setting up 6 Worker Threads
[22:04:51 --4:00] [Thread 3310597146] extDB: Database Type: MySQL
[22:04:51 --4:00] [Thread 3310597146] extDB: Database Session Pool Started
[22:04:51 --4:00] [Thread 3310597146] extDB: DB_CUSTOM_V5: Loading Template Filename: C:\Games\ArmA3\A3Master\@extDB\extDB\db_custom\altis-life-rpg-4.ini
[22:04:51 --4:00] [Thread 2268963249] extDB: DB_CUSTOM_V5: Error StatementException: MySQL: [MySQL]: [Comment]: mysql_stmt_execute error	[mysql_stmt_error]: The user specified as a definer ('arma3'@'localhost') does not exist	[mysql_stmt_errno]: 1449	[mysql_stmt_sqlstate]: HY000	[statemnt]: CALL resetLifeVehicles;
[22:04:51 --4:00] [Thread 2268963249] extDB: DB_CUSTOM_V5: Error Exception: SQL: resetLifeVehicles
[22:32:02 --4:00] [Thread 3310597146] extDB: Stopping ...
