[15:53:47 --4:00] [Thread 404001101] extDB: Version: 35
[15:53:47 --4:00] [Thread 404001101] extDB: Windows Version
[15:53:47 --4:00] [Thread 404001101] Message: Arma Linux Servers are using Older Physic Library (than Windows Servers), due to Debian 7 using old version of Glibc
[15:53:47 --4:00] [Thread 404001101] Message: If you like extDB consider donating or bug BIS to drop support for Debian 7 thanks, so Linux Servers get same Physic Library Version as Windows
[15:53:47 --4:00] [Thread 404001101] Message: Note currently most/all development for extDB is done on a Linux Server
[15:53:47 --4:00] [Thread 404001101] Message: Torndeco: 24/01/15
[15:53:47 --4:00] [Thread 404001101] 
[15:53:47 --4:00] [Thread 404001101] extDB: Found extdb-conf.ini
[15:53:47 --4:00] [Thread 404001101] extDB: Detected 8 Cores, Setting up 6 Worker Threads
[15:53:47 --4:00] [Thread 404001101] extDB: Database Type: MySQL
[15:53:47 --4:00] [Thread 404001101] extDB: Database Session Pool Started
[15:53:47 --4:00] [Thread 404001101] extDB: DB_CUSTOM_V5: Loading Template Filename: C:\Games\ArmA3\A3Master\@extDB\extDB\db_custom\altis-life-rpg-4.ini
[15:53:47 --4:00] [Thread 62641389] extDB: DB_CUSTOM_V5: Error StatementException: MySQL: [MySQL]: [Comment]: mysql_stmt_execute error	[mysql_stmt_error]: The user specified as a definer ('arma3'@'localhost') does not exist	[mysql_stmt_errno]: 1449	[mysql_stmt_sqlstate]: HY000	[statemnt]: CALL resetLifeVehicles;
[15:53:47 --4:00] [Thread 62641389] extDB: DB_CUSTOM_V5: Error Exception: SQL: resetLifeVehicles
[16:40:26 --4:00] [Thread 404001101] extDB: Stopping ...
