[00:28:48 --4:00] [Thread 653762751] extDB: Version: 35
[00:28:48 --4:00] [Thread 653762751] extDB: Windows Version
[00:28:48 --4:00] [Thread 653762751] Message: Arma Linux Servers are using Older Physic Library (than Windows Servers), due to Debian 7 using old version of Glibc
[00:28:48 --4:00] [Thread 653762751] Message: If you like extDB consider donating or bug BIS to drop support for Debian 7 thanks, so Linux Servers get same Physic Library Version as Windows
[00:28:48 --4:00] [Thread 653762751] Message: Note currently most/all development for extDB is done on a Linux Server
[00:28:48 --4:00] [Thread 653762751] Message: Torndeco: 24/01/15
[00:28:48 --4:00] [Thread 653762751] 
[00:28:48 --4:00] [Thread 653762751] extDB: Found extdb-conf.ini
[00:28:48 --4:00] [Thread 653762751] extDB: Detected 8 Cores, Setting up 6 Worker Threads
[00:28:48 --4:00] [Thread 653762751] extDB: No Config Option Found: 
[00:30:04 --4:00] [Thread 653762751] extDB: Stopping ...
