[23:28:17 --4:00] [Thread 1266851819] extDB: Version: 35
[23:28:17 --4:00] [Thread 1266851819] extDB: Windows Version
[23:28:17 --4:00] [Thread 1266851819] Message: Arma Linux Servers are using Older Physic Library (than Windows Servers), due to Debian 7 using old version of Glibc
[23:28:17 --4:00] [Thread 1266851819] Message: If you like extDB consider donating or bug BIS to drop support for Debian 7 thanks, so Linux Servers get same Physic Library Version as Windows
[23:28:17 --4:00] [Thread 1266851819] Message: Note currently most/all development for extDB is done on a Linux Server
[23:28:17 --4:00] [Thread 1266851819] Message: Torndeco: 24/01/15
[23:28:17 --4:00] [Thread 1266851819] 
[23:28:17 --4:00] [Thread 1266851819] extDB: Found extdb-conf.ini
[23:28:17 --4:00] [Thread 1266851819] extDB: Detected 8 Cores, Setting up 6 Worker Threads
[23:28:17 --4:00] [Thread 1266851819] extDB: Database Type: MySQL
[23:28:18 --4:00] [Thread 1266851819] extDB: Database Session Pool Started
[23:28:18 --4:00] [Thread 1266851819] extDB: DB_CUSTOM_V5: Loading Template Filename: D:\_arma\Games\ArmA3\A3Master\@extDB\extDB\db_custom\altis-life-rpg-4.ini
[23:36:08 --4:00] [Thread 1266851819] extDB: Stopping ...
